{
    "name": "horme.system",
    "friendlyName": "System Information",
    "summary": "Collect local system information",
    "metrics": [
        //please keep in alphabetical order
        {
            "name": "horme.system.load.1",
            "friendlyName": "Load: 1 minute",
            "summary": "Load average for the past minute",
            "dataType": "double",
            "platforms": ["posix"]
        },
        {
            "name": "horme.system.load.5",
            "friendlyName": "Load: 5 minutes",
            "summary": "Load average for the past 5 minutes",
            "dataType": "double",
            "platforms": ["posix"]
        },
        {
            "name": "horme.system.load.15",
            "friendlyName": "Load: 15 minutes",
            "summary": "Load average for the past 15 minutes",
            "dataType": "double",
            "platforms": ["posix"]
        },
        {
            "name": "horme.system.mem.actualfree",
            "friendlyName": "Memory: actual free",
            "summary": "Actual free system memory",
            "dataType": "ui64"
        },
        {
            "name": "horme.system.mem.actualused",
            "friendlyName": "Memory: actual used",
            "summary": "Actual used system memory",
            "dataType": "ui64"
        },
        {
            "name": "horme.system.mem.free",
            "friendlyName": "Memory: free",
            "summary": "Free system memory",
            "dataType": "ui64"
        },
        {
            "name": "horme.system.mem.freepct",
            "friendlyName": "Memory: free percent",
            "summary": "Percentage of free memory on the system",
            "dataType": "double"
        },
        {
            "name": "horme.system.mem.ram",
            "friendlyName": "Memory: RAM in MB",
            "summary": "RAM (MB) of system",
            "dataType": "ui64"
        },
        {
            "name": "horme.system.mem.total",
            "friendlyName": "Memory: total",
            "summary": "Total system memory",
            "dataType": "ui64"
        },
        {
            "name": "horme.system.mem.used",
            "friendlyName": "Memory: used",
            "summary": "Used system memory",
            "dataType": "ui64"
        },
        {
            "name": "horme.system.mem.usedpct",
            "friendlyName": "Memory: used percent",
            "summary": "Percentage of used memory on the system",
            "dataType": "double"
        }
    ]
}