{
    "metricListener": {
        "port": 8081
    },
    "restService": {
        "port": 8082
    },
    "database": {
        "vendor": "postgres",
        "host": "localhost",
        "port": 5432,
        "database": "horme",
        "username": "postgres",
        "password": "blah"
    }
}